<?xml version="1.0" encoding="UTF-8"?>
<CustomTab xmlns="http://soap.sforce.com/2006/04/metadata">
    <customObject>true</customObject>
    <description>A tab and color scheme for the Position custom object.</description>
    <mobileReady>false</mobileReady>
    <motif>Custom73: Highway Sign</motif>
</CustomTab>
